<?xml version="1.0" encoding="utf-8"?>
<!-- Generator: Adobe Illustrator 22.0.1, SVG Export Plug-In . SVG Version: 6.00 Build 0)  -->
<svg version="1.1" id="Capa_1" xmlns="http://www.w3.org/2000/svg" xmlns:xlink="http://www.w3.org/1999/xlink" x="0px" y="0px"
	 viewBox="173.5 469 13 9" style="enable-background:new 173.5 469 13 9;" xml:space="preserve">
<style type="text/css">
	.st0{fill:none;stroke:#EF4338;stroke-linecap:round;stroke-linejoin:round;stroke-miterlimit:10;}
</style>
<polyline class="st0" points="182,469.5 186,473.5 182,477.5 "/>
<line class="st0" x1="174" y1="473.5" x2="186" y2="473.5"/>
</svg>
