<?xml version="1.0" encoding="utf-8"?>
<!-- Generator: Adobe Illustrator 23.0.1, SVG Export Plug-In . SVG Version: 6.00 Build 0)  -->
<svg version="1.1" id="Слой_1" xmlns="http://www.w3.org/2000/svg" xmlns:xlink="http://www.w3.org/1999/xlink" x="0px" y="0px"
	 viewBox="0 0 70.1 69.7" style="enable-background:new 0 0 70.1 69.7;" xml:space="preserve">
<style type="text/css">
	.st0{fill:#FFFFFF;}
	.st1{clip-path:url(#SVGID_2_);fill:#FFFFFF;}
</style>
<g>
	<path class="st0" d="M39,19.7H19.6c-0.6,0-1,0.5-1,1c0,0.6,0.5,1,1,1H39c0.6,0,1-0.5,1-1C40,20.2,39.5,19.7,39,19.7L39,19.7z
		 M39,19.7"/>
	<path class="st0" d="M39,24.7H19.6c-0.6,0-1,0.5-1,1c0,0.6,0.5,1,1,1H39c0.6,0,1-0.5,1-1C40,25.2,39.5,24.7,39,24.7L39,24.7z
		 M39,24.7"/>
	<path class="st0" d="M24.7,16.7h10.3c0.6,0,1-0.5,1-1c0-0.6-0.5-1-1-1H24.7c-0.6,0-1,0.5-1,1C23.7,16.3,24.1,16.7,24.7,16.7
		L24.7,16.7z M24.7,16.7"/>
	<path class="st0" d="M39,29.8H19.6c-0.6,0-1,0.5-1,1c0,0.6,0.5,1,1,1H39c0.6,0,1-0.5,1-1C40,30.2,39.5,29.8,39,29.8L39,29.8z
		 M39,29.8"/>
	<g>
		<defs>
			<rect id="SVGID_1_" x="0.1" width="70" height="69.7"/>
		</defs>
		<clipPath id="SVGID_2_">
			<use xlink:href="#SVGID_1_"  style="overflow:visible;"/>
		</clipPath>
		<path class="st1" d="M39,34.8H19.6c-0.6,0-1,0.5-1,1c0,0.6,0.5,1,1,1H39c0.6,0,1-0.5,1-1C40,35.3,39.5,34.8,39,34.8L39,34.8z
			 M39,34.8"/>
		<path class="st1" d="M61.2,28.6V4.2c0-2.3-1.8-4.1-4.1-4.1H12.9c-2.3,0-4.1,1.8-4.1,4.1v24.4l-8,12.1C0.3,41.2,0,41.9,0,42.6v24.3
			c0,1.5,1.3,2.8,2.8,2.8h64.4c1.5,0,2.8-1.3,2.8-2.8v-9.7c0-0.6-0.5-1-1-1c-0.6,0-1,0.5-1,1v9.7c0,0.4-0.3,0.7-0.7,0.7h-9.5v-0.8
			c0-1.5-1.3-2.8-2.8-2.8H37.4c-0.6,0-1,0.5-1,1c0,0.6,0.5,1,1,1h17.5c0.4,0,0.7,0.3,0.7,0.7v0.8H14.4v-0.8c0-0.4,0.3-0.7,0.7-0.7
			h17.5c0.6,0,1-0.5,1-1c0-0.6-0.5-1-1-1H15.1c-1.5,0-2.8,1.3-2.8,2.8v0.8H2.8c-0.4,0-0.7-0.3-0.7-0.7V42.6c0-0.4,0.4-0.7,0.7-0.7
			h64.4c0.4,0,0.7,0.3,0.7,0.7v9.7c0,0.6,0.5,1,1,1c0.6,0,1-0.5,1-1v-9.7c0-0.7-0.3-1.4-0.8-1.9L61.2,28.6z M56.3,8.6
			c-1.9,0-3.3-1.6-3.2-3.5c0.1-0.8-0.6-1.5-1.4-1.5h-2.1c-0.1-0.5-0.3-1-0.5-1.5h7.9c1.1,0,2.1,0.9,2.1,2.1v35.6h-1.5V10
			C57.7,9.2,57.1,8.6,56.3,8.6C56.3,8.6,56.3,8.6,56.3,8.6 M8.8,32.3v7.5h-5L8.8,32.3z M44.8,8.6c-1.8,0-3.2-1.4-3.2-3.2
			c0-0.1,0-0.2,0-0.3c0.1-0.8-0.6-1.5-1.4-1.5h-22c-0.8,0-1.4,0.7-1.4,1.5c0,0.1,0,0.2,0,0.3c0,1.8-1.4,3.2-3.2,3.2c0,0,0,0,0,0
			c-0.4,0-0.7,0.1-1,0.4c-0.3,0.3-0.4,0.6-0.4,1v29.9h-1.5c0-1,0-33.9,0-35.6c0-1.1,0.9-2.1,2.1-2.1h32.7c1.1,0,2.1,0.9,2.1,2.1
			v35.6h-1.5V10c0-0.4-0.1-0.7-0.4-1C45.5,8.7,45.2,8.6,44.8,8.6C44.8,8.6,44.8,8.6,44.8,8.6 M14.4,39.8V10.6
			c2.5-0.3,4.4-2.4,4.6-4.9h20.6c0.2,2.5,2.1,4.6,4.6,4.9v29.3H14.4z M49.7,39.8V5.7h1.4c0.2,2.5,2.1,4.6,4.6,4.9v29.3H49.7z
			 M61.2,39.8v-7.5l5,7.5H61.2z M61.2,39.8"/>
	</g>
	<path class="st0" d="M47.8,46.5c-1.2,0-2.3,1-2.3,2.3v9c0,1.2,1,2.3,2.3,2.3h13.3c1.2,0,2.3-1,2.3-2.3v-9c0-1.2-1-2.3-2.3-2.3H47.8
		z M61.3,48.7v9c0,0.1-0.1,0.2-0.2,0.2H47.8c-0.1,0-0.2-0.1-0.2-0.2v-9c0-0.1,0.1-0.2,0.2-0.2h13.3C61.2,48.5,61.3,48.6,61.3,48.7
		L61.3,48.7z M61.3,48.7"/>
	<path class="st0" d="M58.4,50.3h-8c-0.6,0-1,0.5-1,1c0,0.6,0.5,1,1,1h8c0.6,0,1-0.5,1-1C59.5,50.8,59,50.3,58.4,50.3L58.4,50.3z
		 M58.4,50.3"/>
	<path class="st0" d="M58.4,54.1h-8c-0.6,0-1,0.5-1,1c0,0.6,0.5,1,1,1h8c0.6,0,1-0.5,1-1C59.5,54.5,59,54.1,58.4,54.1L58.4,54.1z
		 M58.4,54.1"/>
</g>
</svg>
