<?xml version="1.0" encoding="utf-8"?>
<!-- Generator: Adobe Illustrator 23.0.1, SVG Export Plug-In . SVG Version: 6.00 Build 0)  -->
<svg version="1.1" id="Слой_1" xmlns="http://www.w3.org/2000/svg" xmlns:xlink="http://www.w3.org/1999/xlink" x="0px" y="0px"
	 viewBox="0 0 70 70" style="enable-background:new 0 0 70 70;" xml:space="preserve">
<style type="text/css">
	.st0{fill:#FFFFFF;}
</style>
<path class="st0" d="M3.8,70c-0.9-0.4-1.2-1-1.1-1.6c0.2-0.8,0.7-1.1,1.7-1.1c2.6,0,5.1,0,7.8,0c0-2,0-4,0-6c-0.2,0-0.4,0-0.7,0
	c-3.3,0-6.5,0-9.8,0c-1.4,0-1.9-0.5-1.9-1.8c0-1.6-0.1-3.2,0.1-4.8c0.5-4.1,3.3-7.1,7.3-8.1c1.5-0.4,3-0.7,4.5-1.1
	c0-0.4,0-0.8,0-1.2c0-0.2-0.2-0.5-0.3-0.6c-2.7-1.9-3.9-4.5-3.9-7.8c0-1.8,0-3.5,0-5.3c0-5,3.7-8.6,8.7-8.7c2.8-0.1,5.2,0.7,7.1,2.8
	c2.1-5.3,5.8-8.4,11.5-8.4c5.7,0,9.5,3.1,11.6,8.4c1.2-1.2,2.6-2.2,4.3-2.5c5.1-1.1,9.4,1,11,5.6c0.3,0.9,0.4,1.9,0.5,2.9
	c0.1,1.9,0,3.8,0,5.7c0,3.1-1.3,5.5-3.8,7.2c-0.7,0.5-0.4,1.1-0.4,1.6c0,0.2,0.5,0.4,0.7,0.5c1.2,0.3,2.5,0.6,3.7,0.9
	c4.1,1.1,6.5,3.7,7.3,7.9c0,0.1,0.1,0.2,0.1,0.3c0,1.8,0,3.6,0,5.5c-0.3,0.8-1,1.1-1.8,1.1c-3.3,0-6.6,0-9.8,0c-0.2,0-0.5,0-0.6,0
	c0,2.1,0,4,0,6c2.7,0,5.2,0,7.8,0c1,0,1.5,0.4,1.7,1.1c0.1,0.7-0.2,1.2-1,1.6C45.4,70,24.6,70,3.8,70z M25.7,31.3c0,1.4,0,2.8,0,4.1
	c0,0.6,0.1,1.2,0.2,1.8c0.9,4.3,4.6,7.4,9,7.4c4.3,0.1,8.2-2.8,9.1-7.1c0.4-1.8,0.2-3.8,0.3-5.7c0-0.1,0-0.3-0.1-0.5
	c-2.8,0.1-5-1-6.5-3.4C34.1,30.5,30.1,31.5,25.7,31.3z M14.9,67.2c5.7,0,11.1,0,16.6,0c-4.1-4.1-8.2-8.2-12.4-12.4
	c-1.9,1.4-3.4,3.4-3.8,5.8C15,62.8,15.1,65,14.9,67.2z M51,54.9c-4.2,4.2-8.3,8.3-12.3,12.3c5.3,0,10.7,0,16.1,0
	c0-1.9,0.2-3.9,0-5.7C54.5,58.7,53.1,56.5,51,54.9z M44.3,28.5c-0.1-3.7-1.6-6.6-4.8-8.4c-3.3-1.8-6.6-1.7-9.7,0.4
	c-2.8,1.9-4.1,4.6-4.1,8c2.9,0.2,5.7-0.3,8.3-1.6c1.9-1,3.4-2.3,4.8-3.9c0.6-0.7,1.5-0.8,2-0.2c0.6,0.6,0.6,1.3,0,2
	c-0.3,0.4-0.7,0.7-1,1.1C40.8,27.9,42.3,28.7,44.3,28.5z M10.4,33.5c0,1.1,0,2.2,0,3.2c0.1,1.2,0.4,2.3,1.2,3.2
	c1.7,2.2,4.4,2.7,7.1,2.1c1.7-0.4,2.9-1.4,3.6-3c0.9-1.8,0.6-3.7,0.6-5.6c-2.1-0.1-4.1-0.6-6-1.5c-0.2-0.1-0.4-0.1-0.6,0
	C14.6,32.9,12.6,33.4,10.4,33.5z M59.7,33.7c-1.6-0.4-3.1-0.5-4.4-1.1c-1.4-0.7-2.6-0.6-4,0c-1.3,0.6-2.8,0.7-4.2,1
	c0,1.2-0.1,2.4,0,3.7c0.1,1.4,0.8,2.6,1.9,3.5c1.6,1.4,3.5,1.6,5.5,1.4c2.4-0.3,4.1-1.7,4.7-4.1C59.7,36.7,59.6,35.1,59.7,33.7z
	 M67.3,58.5c0-1.1,0-2,0-3c-0.1-2.2-1-4-2.8-5.3c-2-1.4-4.4-1.4-6.7-2.1c-0.6,2.2-1.1,4.3-1.7,6.4c-0.3,1-0.4,1.9,0.3,2.7
	c0.2,0.2,0.2,0.4,0.3,0.7c0.1,0.4,0.4,0.6,0.8,0.6c2.3,0,4.6,0,6.8,0C65.3,58.5,66.3,58.5,67.3,58.5z M2.6,58.5c0.5,0,0.7,0,1,0
	c2.7,0,5.4-0.1,8.1,0c1.1,0,1.8-0.1,2-1.3c0-0.1,0.1-0.3,0.2-0.4c0.4-0.5,0.4-1.1,0.3-1.7c-0.6-2.3-1.2-4.7-1.8-7.1
	c-1.7,0.4-3.4,0.8-5,1.3c-2.1,0.7-3.6,2.3-4.1,4.4C2.7,55.3,2.8,56.9,2.6,58.5z M31.5,46.8c0.1,1.2,0,2.4,0.2,3.4c0.9,4,2,8,3,12
	c0.1,0.2,0.1,0.4,0.2,0.7c0.1-0.4,0.2-0.5,0.2-0.7c1-3.8,2-7.6,2.9-11.4c0.3-1.3,0.3-2.6,0.4-4C36.2,47.5,33.9,47.5,31.5,46.8z
	 M23,30.7c0-2.2-0.8-4-2.7-5.2c-2.4-1.4-4.9-1.4-7.3,0c-1.8,1.1-2.6,2.9-2.6,5.1c1.7-0.1,3.2-0.3,4.6-1.2c1.2-0.8,2.2-0.8,3.4,0
	C19.7,30.4,21.3,30.7,23,30.7z M59.6,30.7c0-2.3-0.8-4.1-2.7-5.2c-2.4-1.4-5-1.4-7.3,0.1c-1.8,1.1-2.5,2.9-2.5,5.1
	c1.8-0.1,3.5-0.4,4.9-1.4c0.9-0.6,1.7-0.6,2.6,0C56.1,30.3,57.8,30.7,59.6,30.7z M32.4,63.9c-1.1-4.1-2.1-8.2-3.2-12.3
	c-2.5,0.6-4.9,1.2-7.3,1.8C25.4,56.9,28.9,60.4,32.4,63.9z M48.1,53.4c-2.3-0.6-4.8-1.1-7.3-1.7c-1.1,4.1-2.1,8.1-3.1,12.1
	C41.1,60.3,44.6,56.9,48.1,53.4z M24.5,41.2c-1,0.9-1.9,1.7-2.8,2.5c-0.1,0.1-0.2,0.3-0.2,0.4c0,0.4,0,0.9,0,1.3
	c2.5,0.7,5,1,7.4,2.3c0-0.6,0-1.2,0-1.7c0-0.2-0.1-0.4-0.3-0.5C26.8,44.4,25.5,42.9,24.5,41.2z M41.2,47.5c1.3-0.4,2.4-0.8,3.6-1.2
	c1.2-0.3,2.5-0.6,3.7-0.9c0.2-0.9,0.2-1.8-0.8-2.2c-0.3-0.1-0.5-0.4-0.7-0.6c-0.5-0.5-0.9-1-1.3-1.5c-1,1.8-2.4,3.3-4.1,4.4
	c-0.1,0.1-0.3,0.3-0.3,0.5C41.1,46.5,41.2,47,41.2,47.5z M51.3,44.9c0,0.5-0.1,1.1,0,1.6c0.5,2,1,4,1.5,5.9c0.1,0.3,0.4,0.6,0.5,0.9
	c0.8-2.4,1.4-4.7,1.9-7.1c0.1-0.5,0-1,0-1.5C54,44.9,52.7,44.9,51.3,44.9z M14.6,44.9c0.1,2.9,1.3,5.6,1.8,8.5
	c0.9-0.6,2.6-7.2,2.3-8.5C17.3,44.9,16,44.9,14.6,44.9z M20.4,51c2-0.5,3.9-1,5.8-1.5c0-0.1,0-0.1,0-0.2c-1.7-0.4-3.3-0.8-5-1.2
	C20.9,49.1,20.6,50,20.4,51z M43.9,49.4c0,0.1,0,0.1,0,0.2c1.9,0.5,3.8,1,5.8,1.5c-0.3-1-0.5-1.9-0.8-2.9
	C47.2,48.5,45.5,49,43.9,49.4z"/>
<path class="st0" d="M50.1,5.6c1.3,0,1.9,1.1,1.4,2c-0.1,0.2-0.3,0.4-0.5,0.6c-1.6,1.6-3.2,3.3-4.9,4.9c-0.3,0.3-0.7,0.5-1,0.6
	c-0.5,0.1-1.1-0.1-1.3-0.6c-0.2-0.4-0.1-0.9-0.1-1.4c0-0.2,0.3-0.4,0.5-0.6c1.6-1.6,3.2-3.2,4.8-4.8C49.4,6,49.9,5.8,50.1,5.6z"/>
<path class="st0" d="M26.3,12.1c0,1.2-1,1.8-1.8,1.5c-0.2-0.1-0.4-0.2-0.5-0.3c-1.7-1.7-3.3-3.3-5-5c-0.2-0.2-0.3-0.5-0.4-0.8
	c-0.1-0.5,0.1-1,0.6-1.3c0.5-0.3,0.9-0.3,1.4-0.1c0.2,0.1,0.3,0.2,0.4,0.3c1.6,1.6,3.2,3.2,4.8,4.8C26,11.5,26.2,11.9,26.3,12.1z"/>
<path class="st0" d="M33.6,4.3c0-0.9,0-1.8,0-2.7C33.7,0.6,34.3,0,35,0c0.8,0,1.3,0.6,1.3,1.5c0,1.8,0,3.7,0,5.5
	c0,0.9-0.6,1.5-1.4,1.5c-0.8,0-1.3-0.6-1.3-1.5C33.6,6.1,33.6,5.2,33.6,4.3z"/>
<path class="st0" d="M36.4,11.9c0,0.7-0.6,1.4-1.3,1.4c-0.7,0-1.4-0.6-1.4-1.3c0-0.7,0.6-1.3,1.3-1.4C35.7,10.6,36.4,11.2,36.4,11.9
	z"/>
</svg>
